<?xml version="1.0" encoding="UTF-8" standalone="no"?><svg xmlns="http://www.w3.org/2000/svg" xmlns:xlink="http://www.w3.org/1999/xlink" contentScriptType="application/ecmascript" contentStyleType="text/css" height="804px" preserveAspectRatio="none" style="width:1254px;height:804px;" version="1.1" viewBox="0 0 1254 804" width="1254px" zoomAndPan="magnify"><defs><filter height="300%" id="fu0wxzos4o0e6" width="300%" x="-1" y="-1"><feGaussianBlur result="blurOut" stdDeviation="2.0"/><feColorMatrix in="blurOut" result="blurOut2" type="matrix" values="0 0 0 0 0 0 0 0 0 0 0 0 0 0 0 0 0 0 .4 0"/><feOffset dx="4.0" dy="4.0" in="blurOut2" result="blurOut3"/><feBlend in="SourceGraphic" in2="blurOut3" mode="normal"/></filter></defs><g><polygon fill="#FFFFFF" filter="url(#fu0wxzos4o0e6)" points="22,34,32,24,304,24,304,675,294,685,22,685,22,34" style="stroke: #000000; stroke-width: 1.5;"/><line style="stroke: #000000; stroke-width: 1.5;" x1="294" x2="303" y1="34" y2="25"/><line style="stroke: #000000; stroke-width: 1.5;" x1="22" x2="294" y1="34" y2="34"/><line style="stroke: #000000; stroke-width: 1.5;" x1="294" x2="294" y1="34" y2="685"/><!--cluster notice--><polygon fill="#FFFFFF" filter="url(#fu0wxzos4o0e6)" points="54,126,64,116,272,116,272,643,262,653,54,653,54,126" style="stroke: #000000; stroke-width: 1.5;"/><line style="stroke: #000000; stroke-width: 1.5;" x1="262" x2="271" y1="126" y2="117"/><line style="stroke: #000000; stroke-width: 1.5;" x1="54" x2="262" y1="126" y2="126"/><line style="stroke: #000000; stroke-width: 1.5;" x1="262" x2="262" y1="126" y2="653"/><text fill="#000000" font-family="Ubuntu Mono" font-size="22" font-weight="bold" lengthAdjust="spacingAndGlyphs" textLength="66" x="126" y="147.2601">Notice</text><text fill="#000000" font-family="Ubuntu Mono" font-size="22" font-weight="bold" lengthAdjust="spacingAndGlyphs" textLength="121" x="98.5" y="169.2601">du document</text><!--cluster Page web\nprésentant\nun document\npatrimonial--><path d="M331,267 C331,264 333,262 336,262 C339,262 341,264 341,267 C341,264 343,262 346,262 C349,262 351,264 351,267 C351,264 353,262 356,262 C359,262 361,264 361,267 C361,264 363,262 366,262 C369,262 371,264 371,267 C371,264 373,262 376,262 C379,262 381,264 381,267 C381,264 383,262 386,262 C389,262 391,264 391,267 C391,264 393,262 396,262 C399,262 401,264 401,267 C401,264 403,262 406,262 C409,262 411,264 411,267 C411,264 413,262 416,262 C419,262 421,264 421,267 C421,264 423,262 426,262 C429,262 431,264 431,267 C431,264 433,262 436,262 C439,262 441,264 441,267 C441,264 443,262 446,262 C449,262 451,264 451,267 C451,264 453,262 456,262 C459,262 461,264 461,267 C461,264 463,262 466,262 C469,262 471,264 471,267 C471,264 473,262 476,262 C479,262 481,264 481,267 C481,264 483,262 486,262 C489,262 491,264 491,267 C491,264 493,262 496,262 C499,262 501,264 501,267 C501,264 503,262 506,262 C509,262 511,264 511,267 C511,264 513,262 516,262 C519,262 521,264 521,267 C521,264 523,262 526,262 C529,262 531,264 531,267 C531,264 533,262 536,262 C539,262 541,264 541,267 C541,264 543,262 546,262 C549,262 551,264 551,267 C551,264 553,262 556,262 C559,262 561,264 561,267 C561,264 563,262 566,262 C569,262 571,264 571,267 C571,264 573,262 576,262 C579,262 581,264 581,267 C581,264 583,262 586,262 C589,262 591,264 591,267 C591,264 593,262 596,262 C599,262 601,264 601,267 C601,264 603,262 606,262 C609,262 611,264 611,267 C611,264 613,262 616,262 C619,262 621,264 621,267 C621,264 623,262 626,262 C629,262 631,264 631,267 C631,264 633,262 636,262 C639,262 641,264 641,267 C641,264 643,262 646,262 C649,262 651,264 651,267 C651,264 653,262 656,262 C659,262 661,264 661,267 C661,264 663,262 666,262 C669,262 671,264 671,267 C671,264 673,262 676,262 C679,262 681,264 681,267 C681,264 683,262 686,262 C689,262 691,264 691,267 C691,264 693,262 696,262 C699,262 701,264 701,267 C701,264 703,262 706,262 C709,262 711,264 711,267 C711,264 713,262 716,262 C719,262 721,264 721,267 C721,264 723,262 726,262 C729,262 731,264 731,267 C731,264 733,262 736,262 C739,262 741,264 741,267 C741,264 743,262 746,262 C749,262 751,264 751,267 C751,264 753,262 756,262 C759,262 761,264 761,267 C761,264 763,262 766,262 C769,262 771,264 771,267 C771,264 773,262 776,262 C779,262 781,264 781,267 C781,264 783,262 786,262 C789,262 791,264 791,267 C791,264 793,262 796,262 C799,262 801,264 801,267 C801,264 803,262 806,262 C809,262 811,264 811,267 C811,264 813,262 816,262 C819,262 821,264 821,267 C821,264 823,262 826,262 C829,262 831,264 831,267 C831,264 833,262 836,262 C839,262 841,264 841,267 C841,264 843,262 846,262 C849,262 851,264 851,267 C851,264 853,262 856,262 C859,262 861,264 861,267 C861,264 863,262 866,262 C869,262 871,264 871,267 C871,264 873,262 876,262 C879,262 881,264 881,267 C881,264 883,262 886,262 C889,262 891,264 891,267 C891,264 893,262 896,262 C899,262 901,264 901,267 C901,264 903,262 906,262 C909,262 911,264 911,267 C911,264 913,262 916,262 C919,262 921,264 921,267 C921,264 923,262 926,262 C929,262 931,264 931,267 C931,264 933,262 936,262 C939,262 941,264 941,267 C941,264 943,262 946,262 C949,262 951,264 951,267 C954,267 956,269 956,272 C956,275 954,277 951,277 C954,277 956,279 956,282 C956,285 954,287 951,287 C954,287 956,289 956,292 C956,295 954,297 951,297 C954,297 956,299 956,302 C956,305 954,307 951,307 C954,307 956,309 956,312 C956,315 954,317 951,317 C954,317 956,319 956,322 C956,325 954,327 951,327 C954,327 956,329 956,332 C956,335 954,337 951,337 C954,337 956,339 956,342 C956,345 954,347 951,347 C954,347 956,349 956,352 C956,355 954,357 951,357 C954,357 956,359 956,362 C956,365 954,367 951,367 C954,367 956,369 956,372 C956,375 954,377 951,377 C954,377 956,379 956,382 C956,385 954,387 951,387 C954,387 956,389 956,392 C956,395 954,397 951,397 C954,397 956,399 956,402 C956,405 954,407 951,407 C954,407 956,409 956,412 C956,415 954,417 951,417 C954,417 956,419 956,422 C956,425 954,427 951,427 C954,427 956,429 956,432 C956,435 954,437 951,437 C954,437 956,439 956,442 C956,445 954,447 951,447 C954,447 956,449 956,452 C956,455 954,457 951,457 C954,457 956,459 956,462 C956,465 954,467 951,467 C954,467 956,469 956,472 C956,475 954,477 951,477 C954,477 956,479 956,482 C956,485 954,487 951,487 C954,487 956,489 956,492 C956,495 954,497 951,497 C954,497 956,499 956,502 C956,505 954,507 951,507 C954,507 956,509 956,512 C956,515 954,517 951,517 C954,517 956,519 956,522 C956,525 954,527 951,527 C954,527 956,529 956,532 C956,535 954,537 951,537 C954,537 956,539 956,542 C956,545 954,547 951,547 C954,547 956,549 956,552 C956,555 954,557 951,557 C954,557 956,559 956,562 C956,565 954,567 951,567 C954,567 956,569 956,572 C956,575 954,577 951,577 C954,577 956,579 956,582 C956,585 954,587 951,587 C954,587 956,589 956,592 C956,595 954,597 951,597 C954,597 956,599 956,602 C956,605 954,607 951,607 C954,607 956,609 956,612 C956,615 954,617 951,617 C954,617 956,619 956,622 C956,625 954,627 951,627 C954,627 956,629 956,632 C956,635 954,637 951,637 C954,637 956,639 956,642 C956,645 954,647 951,647 C954,647 956,649 956,652 C956,655 954,657 951,657 C954,657 956,659 956,662 C956,665 954,667 951,667 C954,667 956,669 956,672 C956,675 954,677 951,677 C954,677 956,679 956,682 C956,685 954,687 951,687 C954,687 956,689 956,692 C956,695 954,697 951,697 C954,697 956,699 956,702 C956,705 954,707 951,707 C954,707 956,709 956,712 C956,715 954,717 951,717 C954,717 956,719 956,722 C956,725 954,727 951,727 C954,727 956,729 956,732 C956,735 954,737 951,737 C954,737 956,739 956,742 C956,745 954,747 951,747 C954,747 956,749 956,752 C956,755 954,757 951,757 C954,757 956,759 956,762 C956,765 954,767 951,767 C954,767 956,769 956,772 C956,775 954,777 951,777 C954,777 956,779 956,782 C956,785 954,787 951,787 C951,790 948,792 946,792 C943,792 941,790 941,787 C941,790 938,792 936,792 C933,792 931,790 931,787 C931,790 928,792 926,792 C923,792 921,790 921,787 C921,790 918,792 916,792 C913,792 911,790 911,787 C911,790 908,792 906,792 C903,792 901,790 901,787 C901,790 898,792 896,792 C893,792 891,790 891,787 C891,790 888,792 886,792 C883,792 881,790 881,787 C881,790 878,792 876,792 C873,792 871,790 871,787 C871,790 868,792 866,792 C863,792 861,790 861,787 C861,790 858,792 856,792 C853,792 851,790 851,787 C851,790 848,792 846,792 C843,792 841,790 841,787 C841,790 838,792 836,792 C833,792 831,790 831,787 C831,790 828,792 826,792 C823,792 821,790 821,787 C821,790 818,792 816,792 C813,792 811,790 811,787 C811,790 808,792 806,792 C803,792 801,790 801,787 C801,790 798,792 796,792 C793,792 791,790 791,787 C791,790 788,792 786,792 C783,792 781,790 781,787 C781,790 778,792 776,792 C773,792 771,790 771,787 C771,790 768,792 766,792 C763,792 761,790 761,787 C761,790 758,792 756,792 C753,792 751,790 751,787 C751,790 748,792 746,792 C743,792 741,790 741,787 C741,790 738,792 736,792 C733,792 731,790 731,787 C731,790 728,792 726,792 C723,792 721,790 721,787 C721,790 718,792 716,792 C713,792 711,790 711,787 C711,790 708,792 706,792 C703,792 701,790 701,787 C701,790 698,792 696,792 C693,792 691,790 691,787 C691,790 688,792 686,792 C683,792 681,790 681,787 C681,790 678,792 676,792 C673,792 671,790 671,787 C671,790 668,792 666,792 C663,792 661,790 661,787 C661,790 658,792 656,792 C653,792 651,790 651,787 C651,790 648,792 646,792 C643,792 641,790 641,787 C641,790 638,792 636,792 C633,792 631,790 631,787 C631,790 628,792 626,792 C623,792 621,790 621,787 C621,790 618,792 616,792 C613,792 611,790 611,787 C611,790 608,792 606,792 C603,792 601,790 601,787 C601,790 598,792 596,792 C593,792 591,790 591,787 C591,790 588,792 586,792 C583,792 581,790 581,787 C581,790 578,792 576,792 C573,792 571,790 571,787 C571,790 568,792 566,792 C563,792 561,790 561,787 C561,790 558,792 556,792 C553,792 551,790 551,787 C551,790 548,792 546,792 C543,792 541,790 541,787 C541,790 538,792 536,792 C533,792 531,790 531,787 C531,790 528,792 526,792 C523,792 521,790 521,787 C521,790 518,792 516,792 C513,792 511,790 511,787 C511,790 508,792 506,792 C503,792 501,790 501,787 C501,790 498,792 496,792 C493,792 491,790 491,787 C491,790 488,792 486,792 C483,792 481,790 481,787 C481,790 478,792 476,792 C473,792 471,790 471,787 C471,790 468,792 466,792 C463,792 461,790 461,787 C461,790 458,792 456,792 C453,792 451,790 451,787 C451,790 448,792 446,792 C443,792 441,790 441,787 C441,790 438,792 436,792 C433,792 431,790 431,787 C431,790 428,792 426,792 C423,792 421,790 421,787 C421,790 418,792 416,792 C413,792 411,790 411,787 C411,790 408,792 406,792 C403,792 401,790 401,787 C401,790 398,792 396,792 C393,792 391,790 391,787 C391,790 388,792 386,792 C383,792 381,790 381,787 C381,790 378,792 376,792 C373,792 371,790 371,787 C371,790 368,792 366,792 C363,792 361,790 361,787 C361,790 358,792 356,792 C353,792 351,790 351,787 C351,790 348,792 346,792 C343,792 341,790 341,787 C341,790 338,792 336,792 C333,792 331,790 331,787 C328,787 326,785 326,782 C326,779 328,777 331,777 C328,777 326,775 326,772 C326,769 328,767 331,767 C328,767 326,765 326,762 C326,759 328,757 331,757 C328,757 326,755 326,752 C326,749 328,747 331,747 C328,747 326,745 326,742 C326,739 328,737 331,737 C328,737 326,735 326,732 C326,729 328,727 331,727 C328,727 326,725 326,722 C326,719 328,717 331,717 C328,717 326,715 326,712 C326,709 328,707 331,707 C328,707 326,705 326,702 C326,699 328,697 331,697 C328,697 326,695 326,692 C326,689 328,687 331,687 C328,687 326,685 326,682 C326,679 328,677 331,677 C328,677 326,675 326,672 C326,669 328,667 331,667 C328,667 326,665 326,662 C326,659 328,657 331,657 C328,657 326,655 326,652 C326,649 328,647 331,647 C328,647 326,645 326,642 C326,639 328,637 331,637 C328,637 326,635 326,632 C326,629 328,627 331,627 C328,627 326,625 326,622 C326,619 328,617 331,617 C328,617 326,615 326,612 C326,609 328,607 331,607 C328,607 326,605 326,602 C326,599 328,597 331,597 C328,597 326,595 326,592 C326,589 328,587 331,587 C328,587 326,585 326,582 C326,579 328,577 331,577 C328,577 326,575 326,572 C326,569 328,567 331,567 C328,567 326,565 326,562 C326,559 328,557 331,557 C328,557 326,555 326,552 C326,549 328,547 331,547 C328,547 326,545 326,542 C326,539 328,537 331,537 C328,537 326,535 326,532 C326,529 328,527 331,527 C328,527 326,525 326,522 C326,519 328,517 331,517 C328,517 326,515 326,512 C326,509 328,507 331,507 C328,507 326,505 326,502 C326,499 328,497 331,497 C328,497 326,495 326,492 C326,489 328,487 331,487 C328,487 326,485 326,482 C326,479 328,477 331,477 C328,477 326,475 326,472 C326,469 328,467 331,467 C328,467 326,465 326,462 C326,459 328,457 331,457 C328,457 326,455 326,452 C326,449 328,447 331,447 C328,447 326,445 326,442 C326,439 328,437 331,437 C328,437 326,435 326,432 C326,429 328,427 331,427 C328,427 326,425 326,422 C326,419 328,417 331,417 C328,417 326,415 326,412 C326,409 328,407 331,407 C328,407 326,405 326,402 C326,399 328,397 331,397 C328,397 326,395 326,392 C326,389 328,387 331,387 C328,387 326,385 326,382 C326,379 328,377 331,377 C328,377 326,375 326,372 C326,369 328,367 331,367 C328,367 326,365 326,362 C326,359 328,357 331,357 C328,357 326,355 326,352 C326,349 328,347 331,347 C328,347 326,345 326,342 C326,339 328,337 331,337 C328,337 326,335 326,332 C326,329 328,327 331,327 C328,327 326,325 326,322 C326,319 328,317 331,317 C328,317 326,315 326,312 C326,309 328,307 331,307 C328,307 326,305 326,302 C326,299 328,297 331,297 C328,297 326,295 326,292 C326,289 328,287 331,287 C328,287 326,285 326,282 C326,279 328,277 331,277 C328,277 326,275 326,272 C326,269 328,267 331,267 " fill="#FFFFFF" filter="url(#fu0wxzos4o0e6)" style="stroke: #000000; stroke-width: 1.5;"/><text fill="#000000" font-family="Ubuntu Mono" font-size="22" font-weight="bold" lengthAdjust="spacingAndGlyphs" textLength="88" x="594" y="291.2601">Page web</text><text fill="#000000" font-family="Ubuntu Mono" font-size="22" font-weight="bold" lengthAdjust="spacingAndGlyphs" textLength="110" x="583" y="313.2601">présentant</text><text fill="#000000" font-family="Ubuntu Mono" font-size="22" font-weight="bold" lengthAdjust="spacingAndGlyphs" textLength="121" x="577.5" y="335.2602">un document</text><text fill="#000000" font-family="Ubuntu Mono" font-size="22" font-weight="bold" lengthAdjust="spacingAndGlyphs" textLength="121" x="577.5" y="357.2603">patrimonial</text><!--cluster infos--><polygon fill="#FFFFFF" filter="url(#fu0wxzos4o0e6)" points="606,408.5,616,398.5,924,398.5,924,758.5,914,768.5,606,768.5,606,408.5" style="stroke: #000000; stroke-width: 1.5;"/><line style="stroke: #000000; stroke-width: 1.5;" x1="914" x2="923" y1="408.5" y2="399.5"/><line style="stroke: #000000; stroke-width: 1.5;" x1="606" x2="914" y1="408.5" y2="408.5"/><line style="stroke: #000000; stroke-width: 1.5;" x1="914" x2="914" y1="408.5" y2="768.5"/><text fill="#000000" font-family="Ubuntu Mono" font-size="22" font-weight="bold" lengthAdjust="spacingAndGlyphs" textLength="242" x="640" y="429.7601">Informations affichées</text><!--cluster metadata--><polygon fill="#FFFFFF" filter="url(#fu0wxzos4o0e6)" points="352,385,362,375,582,375,582,759,572,769,352,769,352,385" style="stroke: #000000; stroke-width: 1.5;"/><line style="stroke: #000000; stroke-width: 1.5;" x1="572" x2="581" y1="385" y2="376"/><line style="stroke: #000000; stroke-width: 1.5;" x1="352" x2="572" y1="385" y2="385"/><line style="stroke: #000000; stroke-width: 1.5;" x1="572" x2="572" y1="385" y2="769"/><text fill="#000000" font-family="Ubuntu Mono" font-size="22" font-weight="bold" lengthAdjust="spacingAndGlyphs" textLength="121" x="402.5" y="406.2601">Métadonnées</text><text fill="#000000" font-family="Ubuntu Mono" font-size="22" font-weight="bold" lengthAdjust="spacingAndGlyphs" textLength="154" x="386" y="428.2601">de la page web</text><!--cluster Zotero--><polygon fill="#FFFFFF" filter="url(#fu0wxzos4o0e6)" points="972,407,982,397,1232,397,1232,759,1222,769,972,769,972,407" style="stroke: #000000; stroke-width: 1.5;"/><line style="stroke: #000000; stroke-width: 1.5;" x1="1222" x2="1231" y1="407" y2="398"/><line style="stroke: #000000; stroke-width: 1.5;" x1="972" x2="1222" y1="407" y2="407"/><line style="stroke: #000000; stroke-width: 1.5;" x1="1222" x2="1222" y1="407" y2="769"/><text fill="#000000" font-family="Ubuntu Mono" font-size="22" font-weight="bold" lengthAdjust="spacingAndGlyphs" textLength="66" x="1065" y="428.2601">Zotero</text><!--entity doc--><polygon fill="#F8F8F8" filter="url(#fu0wxzos4o0e6)" points="38,50,48,40,166,40,166,82.0001,156,92.0001,38,92.0001,38,50" style="stroke: #000000; stroke-width: 1.5;"/><line style="stroke: #000000; stroke-width: 1.5;" x1="156" x2="165" y1="50" y2="41"/><line style="stroke: #000000; stroke-width: 1.5;" x1="38" x2="156" y1="50" y2="50"/><line style="stroke: #000000; stroke-width: 1.5;" x1="156" x2="156" y1="50" y2="92.0001"/><text fill="#000000" font-family="Ubuntu Mono" font-size="22" font-weight="bold" lengthAdjust="spacingAndGlyphs" textLength="88" x="53" y="78.2601">Document</text><!--entity titre--><polygon fill="#F8F8F8" filter="url(#fu0wxzos4o0e6)" points="152.5,202,162.5,192,247.5,192,247.5,234.0001,237.5,244.0001,152.5,244.0001,152.5,202" style="stroke: #000000; stroke-width: 1.5;"/><line style="stroke: #000000; stroke-width: 1.5;" x1="237.5" x2="246.5" y1="202" y2="193"/><line style="stroke: #000000; stroke-width: 1.5;" x1="152.5" x2="237.5" y1="202" y2="202"/><line style="stroke: #000000; stroke-width: 1.5;" x1="237.5" x2="237.5" y1="202" y2="244.0001"/><text fill="#000000" font-family="Ubuntu Mono" font-size="22" lengthAdjust="spacingAndGlyphs" textLength="55" x="167.5" y="230.2601">Titre</text><!--entity auteur--><polygon fill="#F8F8F8" filter="url(#fu0wxzos4o0e6)" points="142,453,152,443,248,443,248,485.0001,238,495.0001,142,495.0001,142,453" style="stroke: #000000; stroke-width: 1.5;"/><line style="stroke: #000000; stroke-width: 1.5;" x1="238" x2="247" y1="453" y2="444"/><line style="stroke: #000000; stroke-width: 1.5;" x1="142" x2="238" y1="453" y2="453"/><line style="stroke: #000000; stroke-width: 1.5;" x1="238" x2="238" y1="453" y2="495.0001"/><text fill="#000000" font-family="Ubuntu Mono" font-size="22" lengthAdjust="spacingAndGlyphs" textLength="66" x="157" y="481.2601">Auteur</text><!--entity description--><polygon fill="#F8F8F8" filter="url(#fu0wxzos4o0e6)" points="86.5,565,96.5,555,247.5,555,247.5,619.0001,237.5,629.0001,86.5,629.0001,86.5,565" style="stroke: #000000; stroke-width: 1.5;"/><line style="stroke: #000000; stroke-width: 1.5;" x1="237.5" x2="246.5" y1="565" y2="556"/><line style="stroke: #000000; stroke-width: 1.5;" x1="86.5" x2="237.5" y1="565" y2="565"/><line style="stroke: #000000; stroke-width: 1.5;" x1="237.5" x2="237.5" y1="565" y2="629.0001"/><text fill="#000000" font-family="Ubuntu Mono" font-size="22" lengthAdjust="spacingAndGlyphs" textLength="121" x="101.5" y="593.2601">Description</text><text fill="#000000" font-family="Ubuntu Mono" font-size="22" lengthAdjust="spacingAndGlyphs" textLength="88" x="101.5" y="615.2601">(résumé)</text><ellipse cx="747.9771" cy="469.1954" fill="#F8F8F8" filter="url(#fu0wxzos4o0e6)" rx="111.4771" ry="24.6954" style="stroke: #383838; stroke-width: 1.5;"/><text fill="#000000" font-family="Ubuntu Mono" font-size="22" lengthAdjust="spacingAndGlyphs" textLength="187" x="654.4771" y="476.6954">Titre du document</text><ellipse cx="762.9394" cy="592.0879" fill="#F8F8F8" filter="url(#fu0wxzos4o0e6)" rx="140.9394" ry="30.5879" style="stroke: #383838; stroke-width: 1.5;"/><text fill="#000000" font-family="Ubuntu Mono" font-size="22" lengthAdjust="spacingAndGlyphs" textLength="253" x="636.4394" y="599.5879">Description du document</text><ellipse cx="762.752" cy="727.1504" fill="#F8F8F8" filter="url(#fu0wxzos4o0e6)" rx="116.252" ry="25.6504" style="stroke: #383838; stroke-width: 1.5;"/><text fill="#000000" font-family="Ubuntu Mono" font-size="22" lengthAdjust="spacingAndGlyphs" textLength="198" x="663.752" y="734.6504">Auteur du document</text><!--entity twittert--><polygon fill="#F8F8F8" filter="url(#fu0wxzos4o0e6)" points="403,453,413,443,531,443,531,485.0001,521,495.0001,403,495.0001,403,453" style="stroke: #000000; stroke-width: 1.5;"/><line style="stroke: #000000; stroke-width: 1.5;" x1="521" x2="530" y1="453" y2="444"/><line style="stroke: #000000; stroke-width: 1.5;" x1="403" x2="521" y1="453" y2="453"/><line style="stroke: #000000; stroke-width: 1.5;" x1="521" x2="521" y1="453" y2="495.0001"/><text fill="#000000" font-family="Ubuntu Mono" font-size="22" lengthAdjust="spacingAndGlyphs" textLength="88" x="418" y="481.2601">DC.title</text><!--entity twitterc--><polygon fill="#F8F8F8" filter="url(#fu0wxzos4o0e6)" points="392,576,402,566,542,566,542,608.0001,532,618.0001,392,618.0001,392,576" style="stroke: #000000; stroke-width: 1.5;"/><line style="stroke: #000000; stroke-width: 1.5;" x1="532" x2="541" y1="576" y2="567"/><line style="stroke: #000000; stroke-width: 1.5;" x1="392" x2="532" y1="576" y2="576"/><line style="stroke: #000000; stroke-width: 1.5;" x1="532" x2="532" y1="576" y2="618.0001"/><text fill="#000000" font-family="Ubuntu Mono" font-size="22" lengthAdjust="spacingAndGlyphs" textLength="110" x="407" y="604.2601">DC.creator</text><!--entity twitterd--><polygon fill="#F8F8F8" filter="url(#fu0wxzos4o0e6)" points="370,711,380,701,564,701,564,743.0001,554,753.0001,370,753.0001,370,711" style="stroke: #000000; stroke-width: 1.5;"/><line style="stroke: #000000; stroke-width: 1.5;" x1="554" x2="563" y1="711" y2="702"/><line style="stroke: #000000; stroke-width: 1.5;" x1="370" x2="554" y1="711" y2="711"/><line style="stroke: #000000; stroke-width: 1.5;" x1="554" x2="554" y1="711" y2="753.0001"/><text fill="#000000" font-family="Ubuntu Mono" font-size="22" lengthAdjust="spacingAndGlyphs" textLength="154" x="385" y="739.2601">DC.description</text><!--entity zoterot--><polygon fill="#F8F8F8" filter="url(#fu0wxzos4o0e6)" points="988.5,453,998.5,443,1215.5,443,1215.5,485.0001,1205.5,495.0001,988.5,495.0001,988.5,453" style="stroke: #000000; stroke-width: 1.5;"/><line style="stroke: #000000; stroke-width: 1.5;" x1="1205.5" x2="1214.5" y1="453" y2="444"/><line style="stroke: #000000; stroke-width: 1.5;" x1="988.5" x2="1205.5" y1="453" y2="453"/><line style="stroke: #000000; stroke-width: 1.5;" x1="1205.5" x2="1205.5" y1="453" y2="495.0001"/><text fill="#000000" font-family="Ubuntu Mono" font-size="22" lengthAdjust="spacingAndGlyphs" textLength="187" x="1003.5" y="481.2601">Titre du document</text><!--entity zoteroa--><polygon fill="#F8F8F8" filter="url(#fu0wxzos4o0e6)" points="988.5,565,998.5,555,1149.5,555,1149.5,619.0001,1139.5,629.0001,988.5,629.0001,988.5,565" style="stroke: #000000; stroke-width: 1.5;"/><line style="stroke: #000000; stroke-width: 1.5;" x1="1139.5" x2="1148.5" y1="565" y2="556"/><line style="stroke: #000000; stroke-width: 1.5;" x1="988.5" x2="1139.5" y1="565" y2="565"/><line style="stroke: #000000; stroke-width: 1.5;" x1="1139.5" x2="1139.5" y1="565" y2="629.0001"/><text fill="#000000" font-family="Ubuntu Mono" font-size="22" lengthAdjust="spacingAndGlyphs" textLength="66" x="1003.5" y="593.2601">Auteur</text><text fill="#000000" font-family="Ubuntu Mono" font-size="22" lengthAdjust="spacingAndGlyphs" textLength="121" x="1003.5" y="615.2601">du document</text><!--entity zoteror--><polygon fill="#F8F8F8" filter="url(#fu0wxzos4o0e6)" points="1002,711,1012,701,1108,701,1108,743.0001,1098,753.0001,1002,753.0001,1002,711" style="stroke: #000000; stroke-width: 1.5;"/><line style="stroke: #000000; stroke-width: 1.5;" x1="1098" x2="1107" y1="711" y2="702"/><line style="stroke: #000000; stroke-width: 1.5;" x1="1002" x2="1098" y1="711" y2="711"/><line style="stroke: #000000; stroke-width: 1.5;" x1="1098" x2="1098" y1="711" y2="753.0001"/><text fill="#000000" font-family="Ubuntu Mono" font-size="22" lengthAdjust="spacingAndGlyphs" textLength="66" x="1017" y="739.2601">Résumé</text><!--link doc to notice--><path d="M74.5909,92.008 C72.8071,94.555 71.2342,97.23 70,100 C68.695,102.9291 67.5202,105.9407 66.4647,109.0135 C65.9369,110.5499 65.4389,112.1015 64.9694,113.6659 C64.852,114.057 64.7364,114.4488 64.6225,114.8415 C64.5656,115.0378 64.5091,115.2343 64.453,115.431 " fill="none" id="doc-notice" style="stroke: #383838; stroke-width: 1.0;"/><!--link titre to auteur--><path d="M199.493,244.246 C198.535,291.97 196.468,394.911 195.508,442.687 " fill="none" id="titre-auteur" style="stroke: #383838; stroke-width: 1.0;"/><!--link auteur to description--><path d="M189.198,495.071 C185.194,512.377 179.807,535.654 175.343,554.944 " fill="none" id="auteur-description" style="stroke: #383838; stroke-width: 1.0;"/><!--link Titre du document to Description du document--><path d="M750.928,493.617 C753.332,513.012 756.75,540.584 759.336,561.442 " fill="none" id="Titre du document-Description du document" style="stroke: #383838; stroke-width: 1.0;"/><!--link Description du document to Auteur du document--><path d="M763,622.517 C763,646.241 763,679.173 763,701.465 " fill="none" id="Description du document-Auteur du document" style="stroke: #383838; stroke-width: 1.0;"/><!--link twittert to twitterc--><path d="M467,495.071 C467,515.838 467,545.203 467,565.961 " fill="none" id="twittert-twitterc" style="stroke: #383838; stroke-width: 1.0;"/><!--link twitterc to twitterd--><path d="M467,618.016 C467,641.644 467,676.905 467,700.644 " fill="none" id="twitterc-twitterd" style="stroke: #383838; stroke-width: 1.0;"/><!--link titre to Titre du document--><path d="M247.515,218.464 C336.389,218.215 523.865,221.465 580,252 C658.677,294.797 712.585,391.702 735.536,439.813 " fill="none" id="titre-Titre du document" style="stroke: #383838; stroke-width: 1.0;"/><polygon fill="#383838" points="737.791,444.593,737.5702,434.7466,735.6584,440.0706,730.3344,438.1588,737.791,444.593" style="stroke: #383838; stroke-width: 1.0;"/><!--link titre to twittert--><path d="M247.6,241.207 C253.308,244.541 258.91,248.161 264,252 C338.826,308.44 409.929,393.898 444.735,438.519 " fill="none" id="titre-twittert" style="stroke: #383838; stroke-width: 1.0;"/><polygon fill="#383838" points="447.989,442.708,445.6269,433.1466,444.9218,438.7593,439.309,438.0542,447.989,442.708" style="stroke: #383838; stroke-width: 1.0;"/><!--link auteur to twitterc--><path d="M248.09,493.617 C293.379,513.764 358.505,542.736 405.943,563.839 " fill="none" id="auteur-twitterc" style="stroke: #383838; stroke-width: 1.0;"/><polygon fill="#383838" points="410.766,565.984,404.1675,558.6724,406.1973,563.9525,400.9171,565.9823,410.766,565.984" style="stroke: #383838; stroke-width: 1.0;"/><!--link description to Description du document--><path d="M247.627,559.046 C284.685,545.612 329.626,531.685 371.5,525 C455.327,511.618 478.712,511.371 562.5,525 C607.396,532.303 655.813,548.238 693.821,562.735 " fill="none" id="description-Description du document" style="stroke: #383838; stroke-width: 1.0;"/><polygon fill="#383838" points="698.876,564.678,691.9108,557.7148,694.209,562.8838,689.04,565.182,698.876,564.678" style="stroke: #383838; stroke-width: 1.0;"/><!--link description to twitterd--><path d="M226.941,629.161 C262.891,649.797 310.031,675.049 354,693 C359.322,695.173 364.838,697.266 370.442,699.272 " fill="none" id="description-twitterd" style="stroke: #383838; stroke-width: 1.0;"/><polygon fill="#383838" points="375.167,700.936,368.0052,694.1752,370.4505,699.2762,365.3495,701.7216,375.167,700.936" style="stroke: #383838; stroke-width: 1.0;"/><!--link zoterot to zoteroa--><path d="M1095.16,495.071 C1090.44,512.377 1084.09,535.654 1078.83,554.944 " fill="none" id="zoterot-zoteroa" style="stroke: #383838; stroke-width: 1.0;"/><!--link zoteroa to zoteror--><path d="M1065.17,629.343 C1062.79,651.955 1059.79,680.469 1057.67,700.651 " fill="none" id="zoteroa-zoteror" style="stroke: #383838; stroke-width: 1.0;"/><!--link twittert to zoterot--><path d="M476.088,442.917 C493.58,396.746 536.467,300.899 606,252 C612.526,247.411 615.572,248.895 623.5,248 C654.305,244.524 871.695,244.524 902.5,248 C1001.917,259.217 1065.05,379.811 1089.93,437.972 " fill="none" id="twittert-zoterot" style="stroke: #383838; stroke-width: 1.0;"/><polygon fill="#383838" points="1091.93,442.725,1092.1079,432.8777,1089.9822,438.12,1084.7399,435.9943,1091.93,442.725" style="stroke: #383838; stroke-width: 1.0;"/><!--link twitterc to zoteroa--><path d="M513.999,565.93 C544.255,550.672 584.993,532.896 623.5,525 C744.972,500.091 780.762,501.425 902.5,525 C931.996,530.712 962.893,541.626 989.951,553.013 " fill="none" id="twitterc-zoteroa" style="stroke: #383838; stroke-width: 1.0;"/><polygon fill="#383838" points="994.608,554.993,987.8897,547.7913,990.0064,553.0372,984.7605,555.1539,994.608,554.993" style="stroke: #383838; stroke-width: 1.0;"/><!--link twitterd to zoteror--><path d="M564.264,705.402 C583.785,701.904 604.221,698.831 623.5,697 C654.361,694.069 871.646,693.994 902.5,697 C933.85,700.054 968.319,706.561 996.543,712.7366 " fill="none" id="twitterd-zoteror" style="stroke: #383838; stroke-width: 1.0;"/><polygon fill="#383838" points="1001.738,713.8849,993.8127,708.0376,996.8557,712.8063,992.087,715.8493,1001.738,713.8849" style="stroke: #383838; stroke-width: 1.0;"/><!--
@startuml
skinparam monochrome true
skinparam defaultFontSize 22
skinparam defaultFontName Ubuntu Mono

node {
  node "**Document**" as doc
  node "Notice\ndu document" as notice {
    node Titre as titre
    node Auteur as auteur
    node "Description\n(résumé)" as description
  }
}

doc -down- notice
titre -down- auteur
auteur -down- description

cloud "Page web\nprésentant\nun document\npatrimonial" {
  node "Informations affichées" as infos {
    (Titre du document)
    (Description du document)
    (Auteur du document)
  }
  node "Métadonnées\nde la page web" as metadata {
    node "DC.title" as twittert
    node "DC.creator" as twitterc
    node "DC.description" as twitterd
  }
}

(Titre du document) -down- (Description du document)
(Description du document) -down- (Auteur du document)

twittert -down- twitterc
twitterc -down- twitterd

titre -> (Titre du document)
titre -right-> twittert
auteur -> twitterc
description -> (Description du document)
description -right-> twitterd

node Zotero {
  node "Titre du document" as zoterot
  node "Auteur\ndu document" as zoteroa
  node "Résumé" as zoteror
}

zoterot -down- zoteroa
zoteroa -down- zoteror

twittert -right-> zoterot
twitterc -right-> zoteroa
twitterd -right-> zoteror
@enduml

PlantUML version 1.2018.01(Sun Jan 28 19:08:22 CET 2018)
(APACHE source distribution)
Java Runtime: OpenJDK Runtime Environment
JVM: OpenJDK 64-Bit Server VM
Java Version: 1.8.0_151-8u151-b12-0ubuntu0.16.04.2-b12
Operating System: Linux
OS Version: 4.4.0-116-generic
Default Encoding: UTF-8
Language: fr
Country: FR
--></g></svg>