[
  {"id":"fourmentraux_disnovation_2017","abstract":"Image d’ouverture Arham Bartholl, Dead Drops https://deaddrops.com/dead-drops À quoi servent les outils numériques et qui servent-ils ? Peut-on en faire autre chose que ce pour quoi ils ont été prévus ? L’utilisateur peut-il reprendre un certain pouvoir face à des solutions techniques de plus en plus complexes et formatées dans des objectifs marchands ? Dans la perspective d’une théorie critique de la technique (Feenberg 2014), les outils numériques sont souvent perçus comme des outils de ra...","accessed":{"date-parts":[[2020,4,18]]},"author":[{"family":"Fourmentraux","given":"Jean-Paul"}],"citation-key":"fourmentraux_disnovation_2017","container-title":"Techniques & Culture. Revue semestrielle d’anthropologie des techniques","DOI":"10.4000/tc.8535","ISBN":"9782713227073","ISSN":"0248-6016","issue":"67","issued":{"date-parts":[[2017]]},"language":"fr","license":"Tous droits réservés","number":"67","page":"280-285","publisher":"Les éditions de la Maison des sciences de l’Homme","source":"journals.openedition.org","title":"Disnovation: Archéologie de quelques dispositifs médiactivistes low tech","type":"article-journal","URL":"http://journals.openedition.org/tc/8535"},
  {"id":"grimaud_low_2017","abstract":"Ouverture Démonstration d’un mécanisme à la Rube Goldberg. Photogramme tiré du film On the Move Science Museum, Londres, 2007 Âge de pierre, âge de bronze, âge de fer : nous avons tous appris ce refrain. De la préhistoire jusqu’à nos jours, chaque invention ou innovation trouverait sa place dans une chronologie linéaire, orientée vers toujours plus de complexité, du low tech au high tech. À peine sommes-nous entrés dans l’ère digitale qu’on nous annonce déjà une nouvelle époque, marquée, ce...","accessed":{"date-parts":[[2020,4,18]]},"author":[{"family":"Grimaud","given":"Emmanuel"},{"family":"Tastevin","given":"Yann Philippe"},{"family":"Vidal","given":"Denis"}],"citation-key":"grimaud_low_2017","container-title":"Techniques & Culture. Revue semestrielle d’anthropologie des techniques","DOI":"10.4000/tc.8464","ISBN":"9782713227073","ISSN":"0248-6016","issue":"67","issued":{"date-parts":[[2017]]},"language":"fr","license":"Tous droits réservés","number":"67","page":"12-29","publisher":"Les éditions de la Maison des sciences de l’Homme","source":"journals.openedition.org","title":"Low tech, high tech, wild tech. Réinventer la technologie ?","type":"article-journal","URL":"http://journals.openedition.org/tc/8464"},
  {"id":"macfarlane_pandoc_2020","accessed":{"date-parts":[[2020,4,30]]},"author":[{"family":"MacFarlane","given":"John"}],"citation-key":"macfarlane_pandoc_2020","container-title":"Pandoc","issued":{"date-parts":[[2020]]},"language":"en","title":"Pandoc User's Guide","type":"webpage","URL":"https://pandoc.org/MANUAL.html"},
  {"id":"morozov_pour_2014","author":[{"family":"Morozov","given":"Evgeny"}],"citation-key":"morozov_pour_2014","event-place":"Limoges, France","ISBN":"978-2-36405-115-7","issued":{"date-parts":[[2014]]},"language":"français","number-of-pages":"349","publisher":"Fyp","publisher-place":"Limoges, France","source":"Library Catalog - www.sudoc.abes.fr","title":"Pour tout résoudre, cliquez ici: l’aberration du solutionnisme technologique","title-short":"Pour tout résoudre, cliquez ici","translator":[{"family":"Braud","given":"Marie-Caroline"}],"type":"book"},
  {"id":"roussilhe_erreur_2020","accessed":{"date-parts":[[2020,5,10]]},"author":[{"family":"Roussilhe","given":"Gauthier"}],"citation-key":"roussilhe_erreur_2020","container-title":"Gauthier Roussilhe","genre":"Blog","issued":{"date-parts":[[2020,3,30]]},"language":"fr","title":"Une erreur de \"tech\"","type":"post-weblog","URL":"https://www.gauthierroussilhe.com/post/erreur-tech.html"},
  {"id":"simondon_du_1958","author":[{"family":"Simondon","given":"Gilbert"}],"citation-key":"simondon_du_1958","event-place":"Paris, France","ISBN":"978-2-7007-0428-0","issued":{"date-parts":[[1958]]},"language":"français","number-of-pages":"367; 15","publisher":"Aubier [2012]","publisher-place":"Paris, France","source":"Library Catalog - www.sudoc.abes.fr","title":"Du mode d'existence des objets techniques","type":"book"},
  {"id":"smith_brandon_2020","accessed":{"date-parts":[[2020,5,19]]},"author":[{"family":"Smith","given":"Brandon"}],"citation-key":"smith_brandon_2020","container-title":"Brandon Smith","genre":"Blog","issued":{"date-parts":[[2020,5,8]]},"language":"en","title":"Brandon Smith's Website","type":"post-weblog","URL":"https://www.brandonsmith.ninja/blog/libraries-not-frameworks"}
]
