[
  {"id":"allington_latex_2016","accessed":{"date-parts":[[2020,4,30]]},"author":[{"family":"Allington","given":"Daniel"}],"citation-key":"allington_latex_2016","container-title":"Daniel Allington","genre":"Blog","issued":{"date-parts":[[2016,9,13]]},"language":"en-US","source":"www.danielallington.net","title":"The LaTeX fetish (Or: Don’t write in LaTeX! It’s just for typesetting)","title-short":"The LaTeX fetish","type":"post-weblog","URL":"http://www.danielallington.net/2016/09/the-latex-fetish/"},
  {"id":"derose_what_1990","accessed":{"date-parts":[[2020,3,28]]},"author":[{"family":"DeRose","given":"Steven J."},{"family":"Durand","given":"David G."},{"family":"Mylonas","given":"Elli"},{"family":"Renear","given":"Allen H."}],"citation-key":"derose_what_1990","container-title":"Journal of Computing in Higher Education","DOI":"10.1007/BF02941632","ISSN":"1042-1726","issue":"2","issued":{"date-parts":[[1990,12]]},"language":"English (US)","page":"3-26","source":"experts.illinois.edu","title":"What is text, really?","type":"article-journal","URL":"https://experts.illinois.edu/en/publications/what-is-text-really","volume":"1"},
  {"id":"fauchie_latex_2014","abstract":"Je suis Antoine, curieux et veilleur du web et de ses formes. Sur quaternum.net je parle de web, de publication numérique, de typographie, d'accessibilité, de design et de livre, notamment.","accessed":{"date-parts":[[2018,7,19]]},"author":[{"family":"Fauchié","given":"Antoine"}],"citation-key":"fauchie_latex_2014","container-title":"quaternum.net","genre":"Blog","issued":{"date-parts":[[2014,4,26]]},"language":"fr","license":"CC BY-SA","title":"LaTeX et Jekyll : deux workflows de publication","title-short":"LaTeX et Jekyll","type":"post-weblog","URL":"https://www.quaternum.net/2014/04/26/latex-et-jekyll/"},
  {"id":"guichard_lecriture_2008","abstract":"Je m'intéresse à une technique particulière, l'écriture, renouvelée depuis quelques décennies par l'informatique et l'internet, et j'explique comment les scientifiques, après l'avoir adaptée à leurs besoins, se retrouvent pris en otages par la doxa de la culture et l'industrie de l'écriture. J'aborde enfin les enjeux épistémologiques sous-jacents<br />à une telle situation.","accessed":{"date-parts":[[2018,6,9]]},"author":[{"family":"Guichard","given":"Éric"}],"citation-key":"guichard_lecriture_2008","event-title":"L’Internet : Espace public et Enjeux de connaissance","issued":{"date-parts":[[2008,12,16]]},"language":"fr","source":"halshs.archives-ouvertes.fr","title":"L'écriture scientifique","type":"paper-conference","URL":"https://halshs.archives-ouvertes.fr/halshs-00347616/document"},
  {"id":"lamport_latex_1986","author":[{"family":"Lamport","given":"Leslie"}],"call-number":"Z 253.4 L38 L35 1986","citation-key":"lamport_latex_1986","event-place":"Reading, Mass. ; Don Mills, Ont.","ISBN":"978-0-201-15790-1","issued":{"date-parts":[[1986]]},"language":"eng","number-of-pages":"viii+242","publisher":"Addison-Wesley","publisher-place":"Reading, Mass. ; Don Mills, Ont.","source":"atrium.umontreal.ca","title":"LaTeX: a document preparation system","title-short":"LaTeX","type":"book"},
  {"id":"perret_dr_2018-1","abstract":"La fragmentation de notre présence éditoriale et le caractère souvent insatisfaisant des plateformes professionnelles conduit certains chercheurs à mettre en place un site à leur façon pour diffuser leurs travaux, ou au moins centraliser l’accès à leur production. C’est ce que j’ai entrepris, en faisant des choix qui me tiennent à cœur et que je souhaitais expliquer en quelques lignes. Pourquoi un site web ? Par essence, le chercheur est dispersé : conférences, articles de revue, chapitres d’...","accessed":{"date-parts":[[2020,4,30]]},"author":[{"family":"Perret","given":"Arthur"}],"citation-key":"perret_dr_2018-1","container-title":"Arthur Perret","genre":"Blog","issued":{"date-parts":[[2018,12,17]]},"language":"fr","publisher":"Infologie","source":"isidore.science","title":"Dr Jekyll & Mr TeX","type":"post-weblog","URL":"https://arthurperret.fr/2018/12/17/dr-jekyll-et-mr-tex/"},
  {"id":"rouquette_latex_2012","author":[{"family":"Rouquette","given":"Maïeul"}],"call-number":"Z253.4.L38 (électronique), 005.36 (électronique)","citation-key":"rouquette_latex_2012","contributor":[{"family":"Chabannes","given":"Brendan"},{"family":"Rouquette","given":"Enimie"}],"event-place":"Tampere, Finlande","ISBN":"978-952-273-073-2","issued":{"date-parts":[[2012]]},"language":"fre","publisher":"Atramenta","publisher-place":"Tampere, Finlande","source":"atrium.umontreal.ca","title":"LaTeX appliqué aux sciences humaines","type":"book"},
  {"id":"vallance_decrire_2015","author":[{"family":"Vallance","given":"David"}],"citation-key":"vallance_decrire_2015","container-title":".txt 2","event-place":"Paris","ISBN":"978-2-917855-59-1","issued":{"date-parts":[[2015,5]]},"language":"fr","page":"126","publisher":"B42","publisher-place":"Paris","title":"Décrire des modèles","type":"chapter"}
]
