[
  {"id":"blanc_repenser_2017","author":[{"family":"Blanc","given":"Julie"},{"family":"Fauchié","given":"Antoine"}],"citation-key":"blanc_repenser_2017","container-title":"Les écologies du numérique","event-place":"Orléans, France","issued":{"date-parts":[["2017",11,10]]},"language":"fr","publisher":"Les écologies du numérique","publisher-place":"Orléans, France","title":"(Re)Penser les chaînes de publication : soutenabilité et émancipation","type":"paper-conference","URL":"https://ecologies-du-numerique.fr/2021/08/24/repenser-les-chaines-editoriales-soutenabilite-et-emancipation/"},
  {"id":"delannay_stylo_2023","abstract":"Stylo est un éditeur de texte sémantique pour l'édition scientifique en sciences humaines, Stylo est un projet de recherche qui questionne le signification même de l'écriture et entend proposer une épistémologie du texte. L'objectif est de reprendre en main des modes de production du sens pour les chercheurs, les chercheuses, les étudiantes, les étudiants, et les revues. Les modalités d'écriture et les options d'édition de Stylo, ainsi que les formats de rédaction et de sortie (les exports), sont l'implémentation technique de cet objectif. Les nouvelles fonctionnalités de Stylo prolongent cette recherche qui s'inscrit dans l'approche pluridisciplinaire des humanités numériques.","accessed":{"date-parts":[["2023",12,7]]},"author":[{"family":"Delannay","given":"Roch"},{"family":"Fauchié","given":"Antoine"},{"family":"Vitali-Rosati","given":"Marcello"}],"citation-key":"delannay_stylo_2023","collection-title":"Poster","container-title":"Humanistica 2023","event-place":"Genève, Switzerland","issued":{"date-parts":[["2023",6]]},"publisher":"Association francophone des humanités numériques","publisher-place":"Genève, Switzerland","source":"HAL Archives Ouvertes","title":"Stylo en 2023 : de nouvelles fonctionnalités pour l'écriture et l'édition scientifique","title-short":"Stylo en 2023","type":"paper-conference","URL":"https://hal.science/hal-04126432"},
  {"id":"fauchie_deployer_2021","abstract":"Déployer le livre. Voilà une invitation adressée à toute personne désireuse de comprendre comment un texte devient une publication via l'usage de processus issu du développement informatique. Nous nous proposons d'explorer la question de la fabrication du livre dans ses multiples expressions.","accessed":{"date-parts":[["2021",6,23]]},"author":[{"family":"Fauchié","given":"Antoine"}],"citation-key":"fauchie_deployer_2021","container-title":"Études du livre au XXIe siècle","event-place":"Laval, Canada","event-title":"Études du livre au XXIe siècle","issued":{"date-parts":[["2021"]]},"language":"fr","publisher":"Études du livre au XXIe siècle","publisher-place":"Laval, Canada","source":"deployer.quaternum.net","title":"Déployer le livre","type":"paper-conference","URL":"https://deployer.quaternum.net"},
  {"id":"fauchie_les_2023","abstract":"Les technologies de l'édition, et plus particulièrement de l'édition numérique, ont beaucoup évolué depuis le début des années 2000, avec l'apparition de chaînes de publication qui s'éloignent peu à peu des logiciels classiques d'édition. Fabriquer une publication, et plus spécifiquement un livre, est une opportunité pour certaines structures de construire leurs propres outils d'édition et de publication, de proposer de nouveaux modèles épistémologiques. À travers plusieurs initiatives d'édition que nous analysons, nous révélons un mouvement double, circulaire, entre la fabrication d'un texte et l'édition d'une fabrique qui permet la production de ce texte. Ce que nous considérons comme des démarches éditoriales non conventionnelles partagent la même approche que celle des humanités numériques, à savoir la production d'un dispositif en même temps que d'un savoir transmissible.","accessed":{"date-parts":[["2023",12,7]]},"author":[{"family":"Fauchié","given":"Antoine"}],"citation-key":"fauchie_les_2023","collection-title":"Épistémologie","container-title":"Humanistica 2023","event-place":"Genève, Switzerland","issued":{"date-parts":[["2023",6]]},"publisher":"Association francophone des humanités numériques","publisher-place":"Genève, Switzerland","source":"HAL Archives Ouvertes","title":"Les fabriques d'édition","type":"paper-conference","URL":"https://hal.science/hal-04128280"},
  {"id":"vallee_novendecameron_2022","author":[{"family":"Vallée","given":"Jean-François"},{"family":"Brassard","given":"Louis-Olivier"},{"family":"Fauchié","given":"Antoine"}],"citation-key":"vallee_novendecameron_2022","container-title":"Colloque Humanistica","event-place":"Montréal (Québec), Canada","event-title":"Colloque Humanistica","issued":{"date-parts":[["2022"]]},"language":"fr","publisher":"Colloque Humanistica","publisher-place":"Montréal (Québec), Canada","title":"Le Novendécaméron : Une expérience d’édition littéraire numérique à l’ère de la covid-19","type":"paper-conference"}
]
