[
  {"id":"aarseth_cybertext_1997","author":[{"family":"Aarseth","given":"Espen J."}],"call-number":"P 302.5 A277 1997","citation-key":"aarseth_cybertext_1997","event-place":"Baltimore, Md.","ISBN":"978-0-8018-5578-8","issued":{"date-parts":[["1997"]]},"language":"eng","number-of-pages":"203","publisher":"Johns Hopkins University Press","publisher-place":"Baltimore, Md.","source":"atrium.umontreal.ca","title":"Cybertext: perspectives on ergodic literature","title-short":"Cybertext","type":"book"},
  {"id":"bolter_remediation:_2000","author":[{"family":"Bolter","given":"Jay David"},{"family":"Grusin","given":"Richard Arthur"}],"citation-key":"bolter_remediation:_2000","event-place":"Cambridge, Massachusetts, États-Unis d'Amérique","ISBN":"978-0-262-52279-3","issued":{"date-parts":[["2000"]]},"language":"anglais","number-of-pages":"xi+295; 9","publisher":"The MIT Press","publisher-place":"Cambridge, Massachusetts, États-Unis d'Amérique","source":"Library Catalog - www.sudoc.abes.fr","title":"Remediation: understanding new media","title-short":"Remediation","type":"book"},
  {"id":"clivaz_ecritures_2019","accessed":{"date-parts":[["2019",7,3]]},"author":[{"family":"Clivaz","given":"Claire"}],"citation-key":"clivaz_ecritures_2019","collection-title":"Digital Biblical Studies","event-place":"Leiden, The Netherlands","ISBN":"978-90-04-40256-0","issued":{"date-parts":[["2019"]]},"language":"en","publisher":"Brill","publisher-place":"Leiden, The Netherlands","source":"brill.com","title":"Ecritures digitales: Digital Writing, Digital Scriptures","title-short":"Ecritures digitales","type":"book","URL":"https://brill.com/view/title/54748"},
  {"id":"dallet_architectures_2019","abstract":"\"La situation de transition que nous connaissons et qui fait cohabiter une culture du livre avec une culture de l'écran nous fait peu à peu basculer d'une raison graphique à une raison computationnelle. De la même manière que l'écriture a permis d'engendrer un mode particulier de pensée, où les listes, les tableaux et les formules ont joué un rôle primordial dans la modélisation des connaissances, avec le numérique s'inventent d'autres systèmes de mise en forme de l'information et de sa transmission. En effet, le développement du réseau, d'un vaste cyberespace, induit une rationalité particulière reposant sur le calcul plutôt que sur l'écriture, ce qui est la seule façon de le rendre intelligible. On comprend dès lors que les architectures de mémoire, dans leur actualisation contemporaine, essentiellement numérique, sont au cœur d'une transformation de l'esprit humain. Il est encore trop tôt pour déterminer exactement ce qu'il en est de cette transformation, mais il importe dès maintenant de tracer les contours de cette situation et d'explorer des pistes qui peuvent en baliser certains des aspects les plus saillants.\"--Page 4 de la couverture.","author":[{"family":"Dallet","given":"Jean-Marie"},{"family":"Gervais","given":"Bertrand"}],"call-number":"BD 181.7 A73 2019","citation-key":"dallet_architectures_2019","collection-title":"La grande collection ArTeC","event-place":"Dijon","ISBN":"978-2-37896-027-8","issued":{"date-parts":[["2019"]]},"language":"fre","publisher":"Les presses du réel et ArTeC","publisher-place":"Dijon","source":"atrium.umontreal.ca","title":"Architectures de mémoire","type":"book"},
  {"id":"fuller_software_2008","citation-key":"fuller_software_2008","editor":[{"family":"Fuller","given":"Matthew"}],"event-place":"Cambridge, Massachusetts, États-Unis d'Amérique","ISBN":"978-0-262-06274-9","issued":{"date-parts":[["2008"]]},"language":"anglais","number-of-pages":"xii+334","publisher":"The MIT Press","publisher-place":"Cambridge, Massachusetts, États-Unis d'Amérique","source":"Library Catalog - www.sudoc.abes.fr","title":"Software studies: a lexicon","title-short":"Software studies","type":"book"},
  {"id":"goldsmith_lecriture_2018","author":[{"family":"Goldsmith","given":"Kenneth"}],"citation-key":"goldsmith_lecriture_2018","event-place":"Paris, France","ISBN":"978-2-36568-017-2","issued":{"date-parts":[["2018"]]},"language":"français","number-of-pages":"242","publisher":"Jean Boîte éditions","publisher-place":"Paris, France","source":"Library Catalog - www.sudoc.abes.fr","title":"L'écriture sans écriture: du langage à l'âge numérique","title-short":"L'écriture sans écriture","translator":[{"family":"Bon","given":"François"}],"type":"book"},
  {"id":"hayles_my_2005","abstract":"Prologue : computing kin -- Pt. I. Making : language and code -- 1. Intermediation : textuality and the regime of computation -- 2. Speech, writing, code : three worldviews -- 3. The dream of information : escape and constraint in the bodies of three fictions -- Pt. II. Storing : print and etext -- 4. Translating media -- 5. Performative code and figurative language : Neal Stephenson's Cryptonomicon -- 6. Flickering connectivities in Shelley Jackson's Patchwork girl -- Pt. III. Transmitting : analog and digital -- 7. (Un)masking the agent : Stanislaw Lem's \"The mask\" -- 8. Simulating narratives : what virtual creatures can teach us -- 9. Subjective cosmology and the regime of computation : intermediation in Greg Egan's fiction -- Epilogue : recursion and emergence.","author":[{"family":"Hayles","given":"Katherine"}],"call-number":"Q 342 H39 2005","citation-key":"hayles_my_2005","event-place":"Chicago","ISBN":"978-0-226-32148-6","issued":{"date-parts":[["2005"]]},"language":"eng","number-of-pages":"x+290","publisher":"University of Chicago Press","publisher-place":"Chicago","source":"atrium.umontreal.ca","title":"My mother was a computer: digital subjects and literary texts","title-short":"My mother was a computer","type":"book"},
  {"id":"keith_resilient_2016","accessed":{"date-parts":[["2019",4,28]]},"author":[{"family":"Keith","given":"Jeremy"}],"citation-key":"keith_resilient_2016","issued":{"date-parts":[["2016"]]},"title":"Resilient Web Design","type":"book","URL":"https://resilientwebdesign.com/"},
  {"id":"kirschenbaum_track_2016","author":[{"family":"Kirschenbaum","given":"Matthew G."}],"citation-key":"kirschenbaum_track_2016","event-place":"Cambridge, Massachusetts, États-Unis d'Amérique","ISBN":"978-0-674-41707-6","issued":{"date-parts":[["2016"]]},"language":"anglais","number-of-pages":"xvi+344; 16","publisher":"The Belknap Press of Harvard University Press","publisher-place":"Cambridge, Massachusetts, États-Unis d'Amérique","source":"Library Catalog - www.sudoc.abes.fr","title":"Track changes: a literary history of word processing","title-short":"Track changes","type":"book"},
  {"id":"kittler_gramophone_1999","abstract":"Translator's introduction -- Preface -- Introduction -- Gramophone -- Film -- Typewriter., \"Toward the end of the nineteenth century, the hegemony of the printed word was shattered by the arrival of media technologies that offered new ways of communicating and storing data. Previously, writing had operated by way of symbolic mediation, but phonography, photography, and cinematography stored physical effects of the real in the shape of sound waves and light. The entire question of referentiality had to be recast in light of these new media technologies. Part technological history of the emergent new media in the late nineteenth century, part theoretical discussion of the responses to these media - including texts by Rilke, Kafka, and Heidegger - Gramophone, Film, Typewriter analyzes this momentous shift using insights from the work of Foucault, Lacan, and McLuhan.\"--page 4 de la couverture.","author":[{"family":"Kittler","given":"Friedrich A."}],"call-number":"P 96 T42 K5714 1999","citation-key":"kittler_gramophone_1999","collection-title":"Writing science","contributor":[{"family":"Winthrop-Young","given":"Geoffrey"},{"family":"Wutz","given":"Michael"}],"event-place":"Stanford, California","ISBN":"978-0-8047-3232-1","issued":{"date-parts":[["1999"]]},"language":"eng","publisher":"MIT Press [1994]","publisher-place":"Stanford, California","source":"atrium.umontreal.ca","title":"Gramophone, film, typewriter","type":"book"},
  {"id":"kittler_gramophone_2018","author":[{"family":"Kittler","given":"Friedrich A."}],"call-number":"P 96 T42 K5712 2018","citation-key":"kittler_gramophone_2018","collection-title":"Médias/Théories","contributor":[{"family":"Vargoz","given":"Frédérique"},{"family":"Alloa","given":"Emmanuel"},{"family":"Guez","given":"Emmanuel"}],"event-place":"Dijon, France","ISBN":"978-2-84066-679-0","issued":{"date-parts":[["2018"]]},"language":"fre","publisher":"Les presses du réel","publisher-place":"Dijon, France","source":"atrium.umontreal.ca","title":"Gramophone, film, typewriter","type":"book"},
  {"id":"kittler_there_1995","accessed":{"date-parts":[["2020",4,21]]},"author":[{"family":"Kittler","given":"Friedrich A."}],"citation-key":"kittler_there_1995","container-title":"CTheory","ISSN":"1190-9153","issued":{"date-parts":[["1995",10,18]]},"language":"en","page":"147-155","source":"journals.uvic.ca","title":"There is No Software","type":"article-journal","URL":"https://journals.uvic.ca/index.php/ctheory/article/view/14655"},
  {"id":"ludovico_post-digital_2016","author":[{"family":"Ludovico","given":"Alessandro"},{"family":"Cramer","given":"Florian"}],"citation-key":"ludovico_post-digital_2016","event-place":"Paris, France","ISBN":"978-2-917855-75-1","issued":{"date-parts":[["2016"]]},"language":"français","number-of-pages":"206","publisher":"Éditions B42","publisher-place":"Paris, France","source":"Library Catalog - www.sudoc.abes.fr","title":"Post-digital print: la mutation de l'édition depuis 1894","title-short":"Post-digital print","translator":[{"family":"Bortolotti","given":"Marie-Mathilde"}],"type":"book"},
  {"id":"manovich_langage_2010","author":[{"family":"Manovich","given":"Lev"},{"family":"Beauvais","given":"Yann"},{"family":"Tribe","given":"Mark"}],"citation-key":"manovich_langage_2010","event-place":"Dijon, France","ISBN":"978-2-84066-342-3","issued":{"date-parts":[["2010"]]},"language":"français","number-of-pages":"605","publisher":"Les Presses du réel","publisher-place":"Dijon, France","source":"Library Catalog - www.sudoc.abes.fr","title":"Le langage des nouveaux médias","translator":[{"family":"Crevier","given":"Richard"}],"type":"book"},
  {"id":"manovich_logiciel_2017","accessed":{"date-parts":[["2021",5,21]]},"author":[{"family":"Manovich","given":"Lev"}],"citation-key":"manovich_logiciel_2017","container-title":"Back Office","ISSN":"2553-422X","issue":"1","issued":{"date-parts":[["2017"]]},"language":"french","title":"Logiciel culturel","type":"article-journal","URL":"http://www.revue-backoffice.com/numeros/01-faire-avec/lev-manovich-logiciel-culturel"},
  {"id":"mcluhan_galaxie_1962","author":[{"family":"McLuhan","given":"Marshall"},{"family":"Wolton","given":"Dominique"}],"citation-key":"mcluhan_galaxie_1962","event-place":"Paris, France","ISBN":"978-2-271-11458-7","issued":{"date-parts":[["1962"]]},"language":"français","number-of-pages":"543","publisher":"CNRS éditions [2017]","publisher-place":"Paris, France","source":"Library Catalog - www.sudoc.abes.fr","title":"La galaxie Gutenberg: la génèse de l'homme typographique","title-short":"La galaxie Gutenberg","translator":[{"family":"Paré","given":"Jean"}],"type":"book"},
  {"id":"mcluhan_pour_1968","author":[{"family":"McLuhan","given":"Marshall"}],"citation-key":"mcluhan_pour_1968","event-place":"Paris, France","ISBN":"978-2-02-004594-0","issued":{"date-parts":[["1968"]]},"language":"français","number-of-pages":"404","original-date":{"date-parts":[["1968"]]},"publisher":"Points [2013]","publisher-place":"Paris, France","source":"Library Catalog - www.sudoc.abes.fr","title":"Pour comprendre les médias: les prolongements technologiques de l'homme","title-short":"Pour comprendre les médias","translator":[{"family":"Paré","given":"Jean"}],"type":"book"},
  {"id":"mcluhan_pour_1993","author":[{"family":"McLuhan","given":"Marshall"}],"call-number":"P 90 M37812 1993, P 90 M37812 1993b","citation-key":"mcluhan_pour_1993","collection-title":"Sciences humaines","event-place":"Saint-Laurent, Québec","ISBN":"978-2-89406-200-5","issued":{"date-parts":[["1993"]]},"language":"fre","number-of-pages":"556","publisher":"Bibliothèque québécoise","publisher-place":"Saint-Laurent, Québec","source":"atrium.umontreal.ca","title":"Pour comprendre les médias: les prolongements technologiques de l'homme","title-short":"Pour comprendre les médias","type":"book"},
  {"id":"mitchell_critical_2010","citation-key":"mitchell_critical_2010","editor":[{"family":"Mitchell","given":"W. J. Thomas"},{"family":"Hansen","given":"Mark"}],"event-place":"Chicago, Etats-Unis d'Amérique, Royaume-Uni de Grande-Bretagne et d'Irlande du Nord","ISBN":"978-0-226-53254-7","issued":{"date-parts":[["2010"]]},"language":"anglais","number-of-pages":"xxii+353","publisher-place":"Chicago, Etats-Unis d'Amérique, Royaume-Uni de Grande-Bretagne et d'Irlande du Nord","source":"Library Catalog - www.sudoc.abes.fr","title":"Critical terms for media studies","type":"book"},
  {"id":"simondon_du_2012","author":[{"family":"Simondon","given":"Gilbert"}],"citation-key":"simondon_du_2012","event-place":"Paris, France","ISBN":"978-2-7007-0428-0","issued":{"date-parts":[["2012"]]},"language":"français","number-of-pages":"367; 15","publisher":"Aubier","publisher-place":"Paris, France","source":"Library Catalog - www.sudoc.abes.fr","title":"Du mode d'existence des objets techniques","type":"book"},
  {"id":"vandendorpe_du_1999","abstract":"S'inscrivant au croisement de travaux de plus en plus nombreux consacrés à l'histoire de la lecture, ce livre conduit une réflexion sur les transformations de nos rapports avec l'écrit et avec la lecture introduites par les nouveaux médias, sur la place et l'avenir de l'écrit dans notre civilisation.","author":[{"family":"Vandendorpe","given":"Christian"}],"citation-key":"vandendorpe_du_1999","event-place":"Paris, France","ISBN":"978-2-7071-3135-5","issued":{"date-parts":[["1999"]]},"language":"français","number-of-pages":"271","publisher":"La Découverte","publisher-place":"Paris, France","source":"Library Catalog - www.sudoc.abes.fr","title":"Du papyrus à l'hypertexte: essai sur les mutations du texte et de la lecture","title-short":"Du papyrus à l'hypertexte","type":"book"}
]
